Demo: Single-cell RNA-seq pipeline using Seurat
…
## Calculating cluster 2

## Calculating cluster 3

## Calculating cluster 4

## Calculating cluster 5

## Calculating cluster 6

pbmc.markers %>% filter(pct.1-pct.2 > .4) %>% 
  group_by(cluster) %>% 
  top_n(5, -p_val)

## # A tibble: 28 x 7
## # Groups:   cluster [7]
##        p_val avg_logFC pct.1 pct.2 p_val_adj cluster gene  
##        <dbl>     <dbl> <dbl> <dbl>     <dbl> <fct>   <chr> 
##  1 1.06e- 49     0.493 0.888 0.443 9.87e- 46 0       CD3D  
##  2 1.25e- 68     0.683 0.886 0.455 1.16e- 64 1       CD3D  
##  3 3.88e- 67     0.691 0.908 0.486 3.61e- 63 1       IL32  
##  4 0.            3.75  0.972 0.119 0.        2       S100A8
##  5 0.            2.73  0.936 0.052 0.        2       LGALS2
##  6 2.66e-290     2.01  0.727 0.025 2.47e-286 2       CD14  
##  7 4.45e-284     2.40  0.964 0.142 4.14e-280 2       FCN1  
##  8 1.13e-283     3.94  0.992 0.213 1.05e-279 2       S100A9
##  9 0.            3.01  0.955 0.04  0.        3       CD79A 
## 10 7.21e-301     2.25  0.866 0.054 6.71e-297 3       MS4A1 
## # ... with 18 more rows
…
